[
    {
        title: 'samsung A30',
        price: 300,
        quantity: 10
    },{
        title: 'samsung A50',
        price: 400,
        quantity: 20
    },{
        title: 'Sony ZX2',
        price: 900,
        quantity: 1
    },{
        title: 'IPhone X',
        price: 1000,
        quantity: 2
    },{
        title: 'Alcatel P1200',
        price: 50,
        quantity: 200
    },{
        title: 'Siemens A52',
        price: 10,
        quantity: 2
    },
    ,{
        title: 'Nokia 3230',
        price: 300,
        quantity: 20
    },
]
